EESchema Schematic File Version 2
LIBS:power
LIBS:device
LIBS:transistors
LIBS:conn
LIBS:linear
LIBS:regul
LIBS:74xx
LIBS:cmos4000
LIBS:adc-dac
LIBS:memory
LIBS:xilinx
LIBS:microcontrollers
LIBS:dsp
LIBS:microchip
LIBS:analog_switches
LIBS:motorola
LIBS:texas
LIBS:intel
LIBS:audio
LIBS:interface
LIBS:digital-audio
LIBS:philips
LIBS:display
LIBS:cypress
LIBS:siliconi
LIBS:opto
LIBS:atmel
LIBS:contrib
LIBS:valves
LIBS:raspberrypi-gpio-cache
LIBS:relays
LIBS:Underwaterhorn-cache
EELAYER 25 0
EELAYER END
$Descr A4 8268 11693 portrait
encoding utf-8
Sheet 1 1
Title ""
Date ""
Rev ""
Comp ""
Comment1 ""
Comment2 ""
Comment3 ""
Comment4 ""
$EndDescr
$Comp
L CONN_02X20 Pi3GPIO1
U 1 1 57EEC0EF
P 2150 3550
F 0 "Pi3GPIO1" H 2150 4600 50  0000 C CNN
F 1 "Raspberry Pi 3 GPIO Pins" V 2150 3550 50  0000 C CNN
F 2 "" H 2150 2600 50  0000 C CNN
F 3 "" H 2150 2600 50  0000 C CNN
	1    2150 3550
	-1   0    0    1   
$EndComp
Text Label 2400 4200 0    60   ~ 0
GPIO04
Text Label 2400 4100 0    60   ~ 0
GND
Text Label 2400 4000 0    60   ~ 0
GPIO17
Text Label 2400 3900 0    60   ~ 0
GPIO27
Text Label 2400 3800 0    60   ~ 0
GPIO22
Text Label 1900 3900 2    60   ~ 0
GND
Text Label 2400 3700 0    60   ~ 0
3.3V
Wire Wire Line
	1900 3900 1700 3900
Wire Wire Line
	1700 3900 1700 4900
Wire Wire Line
	1700 4900 5800 4900
$Comp
L C C1
U 1 1 57EECB8D
P 3200 4600
F 0 "C1" H 3225 4700 50  0000 L CNN
F 1 "100n" H 3225 4500 50  0000 L CNN
F 2 "" H 3238 4450 50  0000 C CNN
F 3 "" H 3200 4600 50  0000 C CNN
	1    3200 4600
	1    0    0    -1  
$EndComp
$Comp
L C C2
U 1 1 57EED0F9
P 4250 4600
F 0 "C2" H 4275 4700 50  0000 L CNN
F 1 "100n" H 4275 4500 50  0000 L CNN
F 2 "" H 4288 4450 50  0000 C CNN
F 3 "" H 4250 4600 50  0000 C CNN
	1    4250 4600
	1    0    0    -1  
$EndComp
$Comp
L C C3
U 1 1 57EED141
P 5350 4600
F 0 "C3" H 5375 4700 50  0000 L CNN
F 1 "100n" H 5375 4500 50  0000 L CNN
F 2 "" H 5388 4450 50  0000 C CNN
F 3 "" H 5350 4600 50  0000 C CNN
	1    5350 4600
	1    0    0    -1  
$EndComp
Wire Wire Line
	3200 4750 3200 4900
Connection ~ 3200 4900
Connection ~ 3650 4900
Connection ~ 5800 4900
Wire Wire Line
	4250 4750 4250 4900
Connection ~ 4250 4900
Connection ~ 4700 4900
Wire Wire Line
	5350 4750 5350 4900
Connection ~ 5350 4900
Wire Wire Line
	2400 4000 3200 4000
Wire Wire Line
	3200 4000 3200 4450
Wire Wire Line
	2400 3900 4250 3900
Wire Wire Line
	4250 3900 4250 4450
Wire Wire Line
	5350 3800 5350 4450
Wire Wire Line
	2400 3800 5350 3800
$Comp
L R R1
U 1 1 57EED96B
P 3400 4350
F 0 "R1" V 3480 4350 50  0000 C CNN
F 1 "10k" V 3400 4350 50  0000 C CNN
F 2 "" V 3330 4350 50  0000 C CNN
F 3 "" H 3400 4350 50  0000 C CNN
	1    3400 4350
	0    -1   -1   0   
$EndComp
$Comp
L R R2
U 1 1 57EEDD29
P 3650 4150
F 0 "R2" V 3730 4150 50  0000 C CNN
F 1 "1k" V 3650 4150 50  0000 C CNN
F 2 "" V 3580 4150 50  0000 C CNN
F 3 "" H 3650 4150 50  0000 C CNN
	1    3650 4150
	1    0    0    -1  
$EndComp
Wire Wire Line
	3200 4350 3250 4350
Connection ~ 3200 4350
Wire Wire Line
	3550 4350 3650 4350
Connection ~ 3650 4350
Wire Wire Line
	2400 3700 5800 3700
Wire Wire Line
	3650 3700 3650 4000
$Comp
L R R5
U 1 1 57EEE21D
P 5550 4350
F 0 "R5" V 5630 4350 50  0000 C CNN
F 1 "10k" V 5550 4350 50  0000 C CNN
F 2 "" V 5480 4350 50  0000 C CNN
F 3 "" H 5550 4350 50  0000 C CNN
	1    5550 4350
	0    -1   -1   0   
$EndComp
$Comp
L R R6
U 1 1 57EEE223
P 5800 4150
F 0 "R6" V 5880 4150 50  0000 C CNN
F 1 "1k" V 5800 4150 50  0000 C CNN
F 2 "" V 5730 4150 50  0000 C CNN
F 3 "" H 5800 4150 50  0000 C CNN
	1    5800 4150
	1    0    0    -1  
$EndComp
Wire Wire Line
	5350 4350 5400 4350
Wire Wire Line
	5700 4350 5800 4350
Connection ~ 5800 4350
Wire Wire Line
	5800 3700 5800 4000
$Comp
L R R3
U 1 1 57EEE6D6
P 4450 4350
F 0 "R3" V 4530 4350 50  0000 C CNN
F 1 "10k" V 4450 4350 50  0000 C CNN
F 2 "" V 4380 4350 50  0000 C CNN
F 3 "" H 4450 4350 50  0000 C CNN
	1    4450 4350
	0    -1   -1   0   
$EndComp
$Comp
L R R4
U 1 1 57EEE6DC
P 4700 4150
F 0 "R4" V 4780 4150 50  0000 C CNN
F 1 "1k" V 4700 4150 50  0000 C CNN
F 2 "" V 4630 4150 50  0000 C CNN
F 3 "" H 4700 4150 50  0000 C CNN
	1    4700 4150
	1    0    0    -1  
$EndComp
Wire Wire Line
	4600 4350 4700 4350
Connection ~ 4700 4350
Wire Wire Line
	4700 3700 4700 4000
Connection ~ 3650 3700
Connection ~ 4700 3700
Wire Wire Line
	4300 4350 4250 4350
Connection ~ 4250 4350
Connection ~ 5350 4350
$Comp
L 4N25 U1
U 1 1 57EEF11E
P 3450 3100
F 0 "U1" H 3250 3300 50  0000 L CNN
F 1 "4N25" H 3450 3300 50  0000 L CNN
F 2 "DIP-6" H 3250 2900 50  0000 L CIN
F 3 "" H 3450 3100 50  0000 L CNN
	1    3450 3100
	1    0    0    -1  
$EndComp
Wire Wire Line
	2400 4100 3050 4100
Wire Wire Line
	3050 4100 3050 3200
Wire Wire Line
	3050 3200 3150 3200
Wire Wire Line
	2400 4200 2850 4200
Wire Wire Line
	2850 4200 2850 3000
$Comp
L R R7
U 1 1 57EF0B1F
P 3000 3000
F 0 "R7" V 3080 3000 50  0000 C CNN
F 1 "220" V 3000 3000 50  0000 C CNN
F 2 "" V 2930 3000 50  0000 C CNN
F 3 "" H 3000 3000 50  0000 C CNN
	1    3000 3000
	0    -1   -1   0   
$EndComp
$Comp
L CONN_01X02 P1
U 1 1 57EF0F76
P 3850 4600
F 0 "P1" H 3850 4750 50  0000 C CNN
F 1 "Main Ref" V 3950 4600 50  0000 C CNN
F 2 "" H 3850 4600 50  0000 C CNN
F 3 "" H 3850 4600 50  0000 C CNN
	1    3850 4600
	1    0    0    -1  
$EndComp
Wire Wire Line
	3650 4300 3650 4550
Wire Wire Line
	3650 4650 3650 4900
$Comp
L CONN_01X02 P3
U 1 1 57EF1A5D
P 6000 4650
F 0 "P3" H 6000 4800 50  0000 C CNN
F 1 "UW Ref 2" V 6100 4650 50  0000 C CNN
F 2 "" H 6000 4650 50  0000 C CNN
F 3 "" H 6000 4650 50  0000 C CNN
	1    6000 4650
	1    0    0    -1  
$EndComp
Wire Wire Line
	4700 4300 4700 4550
$Comp
L CONN_01X02 P2
U 1 1 57EF1925
P 4900 4600
F 0 "P2" H 4900 4750 50  0000 C CNN
F 1 "UW Ref 1" V 5000 4600 50  0000 C CNN
F 2 "" H 4900 4600 50  0000 C CNN
F 3 "" H 4900 4600 50  0000 C CNN
	1    4900 4600
	1    0    0    -1  
$EndComp
Wire Wire Line
	4700 4900 4700 4650
Wire Wire Line
	5800 4300 5800 4600
Wire Wire Line
	5800 4900 5800 4700
$Comp
L CONN_01X02 P4
U 1 1 57EF2FB5
P 6000 1900
F 0 "P4" H 6000 2050 50  0000 C CNN
F 1 "12 V" V 6100 1900 50  0000 C CNN
F 2 "" H 6000 1900 50  0000 C CNN
F 3 "" H 6000 1900 50  0000 C CNN
	1    6000 1900
	1    0    0    -1  
$EndComp
$Comp
L ZENER D1
U 1 1 57EF3B07
P 4250 2600
F 0 "D1" H 4250 2700 50  0000 C CNN
F 1 "ZENER 16V" H 4250 2500 50  0000 C CNN
F 2 "" H 4250 2600 50  0000 C CNN
F 3 "" H 4250 2600 50  0000 C CNN
	1    4250 2600
	0    1    1    0   
$EndComp
$Comp
L CONN_01X02 P6
U 1 1 57EF40F6
P 4800 1900
F 0 "P6" H 4800 2050 50  0000 C CNN
F 1 "Hupe 2" V 4900 1900 50  0000 C CNN
F 2 "" H 4800 1900 50  0000 C CNN
F 3 "" H 4800 1900 50  0000 C CNN
	1    4800 1900
	1    0    0    -1  
$EndComp
$Comp
L CONN_01X02 P7
U 1 1 57EF41AC
P 5350 1900
F 0 "P7" H 5350 2050 50  0000 C CNN
F 1 "Hupe 3" V 5450 1900 50  0000 C CNN
F 2 "" H 5350 1900 50  0000 C CNN
F 3 "" H 5350 1900 50  0000 C CNN
	1    5350 1900
	1    0    0    -1  
$EndComp
$Comp
L CONN_01X02 P5
U 1 1 57EF422A
P 4250 1900
F 0 "P5" H 4250 2050 50  0000 C CNN
F 1 "Hupe 1" V 4350 1900 50  0000 C CNN
F 2 "" H 4250 1900 50  0000 C CNN
F 3 "" H 4250 1900 50  0000 C CNN
	1    4250 1900
	1    0    0    -1  
$EndComp
Text Label 5800 1850 2    60   ~ 0
+
Text Label 5800 1950 2    60   ~ 0
-
Text Label 5150 1850 2    60   ~ 0
+
Text Label 5150 1950 2    60   ~ 0
-
Text Label 4600 1850 2    60   ~ 0
+
Text Label 4600 1950 2    60   ~ 0
-
Text Label 4050 1850 2    60   ~ 0
+
Text Label 4050 1950 2    60   ~ 0
-
$Comp
L RM50-xx11 RL1
U 1 1 585875BE
P 4850 2650
F 0 "RL1" H 5300 2800 50  0000 L CNN
F 1 "FRA2C" H 5300 2700 50  0000 L CNN
F 2 "" H 4850 2650 50  0000 C CNN
F 3 "" H 4850 2650 50  0000 C CNN
	1    4850 2650
	1    0    0    -1  
$EndComp
Wire Wire Line
	4250 2800 4250 3100
Connection ~ 4250 3000
$Comp
L BC547 Q1
U 1 1 57EF0CA9
P 4150 3300
F 0 "Q1" H 4350 3375 50  0000 L CNN
F 1 "BC547" H 4350 3300 50  0000 L CNN
F 2 "" H 4350 3225 50  0000 L CIN
F 3 "" H 4150 3300 50  0000 L CNN
	1    4150 3300
	1    0    0    -1  
$EndComp
Wire Wire Line
	4250 3500 5800 3500
Wire Wire Line
	5050 3500 5050 2950
Wire Wire Line
	5800 1550 5800 1850
Wire Wire Line
	3850 1550 5800 1550
Wire Wire Line
	4050 1850 4050 1550
Connection ~ 4050 1550
Wire Wire Line
	4600 1850 4600 1550
Connection ~ 4600 1550
Wire Wire Line
	5150 1550 5150 1850
Connection ~ 5150 1550
Wire Wire Line
	3850 2300 4650 2300
Connection ~ 3850 2300
Wire Wire Line
	4250 2300 4250 2400
Connection ~ 4250 2300
Wire Wire Line
	4050 1950 4050 2050
Wire Wire Line
	4050 2050 5150 2050
Wire Wire Line
	5150 1950 5150 2350
Wire Wire Line
	4600 1950 4600 2050
Connection ~ 4600 2050
Connection ~ 5150 2050
Wire Wire Line
	5800 3500 5800 1950
Wire Wire Line
	4650 2300 4650 2350
Wire Wire Line
	4250 3000 4650 3000
Wire Wire Line
	4650 3000 4650 2950
Wire Wire Line
	3750 3200 3850 3200
Wire Wire Line
	3850 3200 3850 3300
Wire Wire Line
	3850 3100 3750 3100
Wire Wire Line
	3850 1550 3850 3100
Connection ~ 5050 3500
Wire Wire Line
	3850 3300 3950 3300
$EndSCHEMATC
